<svg width="171" height="80" viewBox="0 0 171 80" fill="none" xmlns="http://www.w3.org/2000/svg">
<path d="M9.73711 27.6247C9.81692 28.3421 9.61738 28.8503 9.13848 29.1493C8.67954 29.4482 8.19066 29.498 7.67186 29.2987C7.15305 29.0994 6.85374 28.6411 6.77392 27.9236C6.75397 25.2731 7.15305 22.7521 7.97117 20.3606L9.91669 21.1079C9.4378 23.2204 9.37793 25.3926 9.73711 27.6247ZM9.49766 59.8798C8.0011 61.7133 6.62426 63.6264 5.36715 65.6194C5.32725 65.6592 5.29732 65.6991 5.27736 65.7389C4.43929 67.1738 3.67105 68.6884 2.97266 70.2827C2.27427 71.8771 1.96498 73.5112 2.04479 75.1853C2.10466 75.6436 2.29422 76.0024 2.61349 76.2614C2.93275 76.5205 3.28195 76.7397 3.66108 76.9191C3.72094 76.959 3.77082 76.9888 3.81073 77.0088C5.20752 77.5867 6.66417 77.8458 8.18069 77.786C9.6972 77.7462 11.1838 77.5369 12.6404 77.1582C18.8063 75.3846 24.0941 72.166 28.504 67.5026C32.9138 62.8393 35.9369 57.4285 37.5731 51.2705C38.3114 48.321 38.7304 45.3117 38.8302 42.2426C38.8502 41.565 38.7704 40.9074 38.5908 40.2696L37.9921 38.6853C37.174 37.1109 36.1364 35.7059 34.8793 34.4703C32.0658 31.6404 28.7933 29.498 25.0619 28.0432C24.2837 27.7243 23.3658 27.4553 22.3082 27.2361C21.2506 27.0169 20.3028 27.0667 19.4647 27.3855C19.3251 27.4852 19.1754 27.5848 19.0158 27.6845V27.6546C18.9759 27.6944 18.936 27.7343 18.8961 27.7742C18.2775 27.9934 17.7587 27.9535 17.3396 27.6546C16.9405 27.3557 16.7211 26.9571 16.6811 26.4588C16.6612 25.9407 16.9206 25.5023 17.4594 25.1435C19.5146 24.0076 21.4602 22.7122 23.2959 21.2574C28.9829 16.873 33.4027 11.4722 36.5555 5.0551C37.0942 3.54049 36.9446 2.56397 36.1065 2.12553C35.2684 1.66716 34.1809 1.5177 32.844 1.67713C31.527 1.81663 30.3996 2.05578 29.4618 2.39457C24.7526 3.94904 20.5722 6.42023 16.9206 9.80816C14.7655 11.8011 12.9896 14.0929 11.5928 16.6837C10.8146 18.1385 10.2559 19.6132 9.91669 21.1079L7.97117 20.3606C8.25053 19.5236 8.58975 18.6965 8.98883 17.8794C10.5053 14.7904 12.5307 12.0203 15.0649 9.56902C17.599 7.11775 20.3727 5.06506 23.3857 3.41095C24.583 2.73337 26.0795 2.03585 27.8754 1.31841C29.6912 0.600963 31.4971 0.172489 33.2929 0.0329859C35.0888 -0.126446 36.5654 0.292063 37.7228 1.28851C38.4212 2.12553 38.6806 3.10205 38.501 4.21808C38.3413 5.3341 37.9522 6.48002 37.3337 7.65583C36.7151 8.81171 36.0865 9.87792 35.448 10.8544C35.1287 11.3527 34.8494 11.8011 34.6099 12.1996C31.2377 17.2616 27.1371 21.646 22.3082 25.3528C23.0665 25.572 23.8147 25.8211 24.553 26.1001C24.9322 26.2197 25.3013 26.3393 25.6605 26.4588C28.494 27.5549 31.2876 29.0496 34.0412 30.9429C36.7949 32.8162 38.94 35.108 40.4764 37.8184L41.2546 39.5821C41.6737 41.1964 41.7834 42.8405 41.5839 44.5145C41.2646 49.1978 40.1572 53.6719 38.2615 57.9367C36.3659 62.2215 33.7719 66.0379 30.4794 69.3859C27.4863 72.3753 24.0841 74.8564 20.2729 76.8294C16.4616 78.8024 12.401 79.8586 8.09089 79.9981C7.09319 80.0181 5.99571 79.8786 4.79846 79.5796C3.62117 79.3006 2.57358 78.8323 1.65569 78.1746C0.757752 77.517 0.209013 76.6202 0.0094719 75.4842C-0.0902987 72.9732 0.598119 70.3126 2.07472 67.5026C3.55133 64.7126 5.35718 62.062 7.49227 59.551C7.69181 59.3118 7.90133 59.0727 8.12082 58.8335C9.37793 57.1993 10.4455 55.3459 11.3235 53.2733C11.6427 52.6356 12.0618 52.3167 12.5806 52.3167C13.1193 52.3167 13.5384 52.536 13.8377 52.9744C14.137 53.4328 14.137 53.9808 13.8377 54.6185C12.4808 56.2926 11.0341 58.0463 9.49766 59.8798Z" fill="#FDF5E6"/>
<path d="M78.7884 35.5166C79.4069 35.3372 79.6663 35.407 79.5666 35.7258C79.4668 36.0248 79.1475 36.4732 78.6088 37.071C78.07 37.649 77.4514 38.2568 76.753 38.8946C76.0546 39.5123 75.4261 40.0604 74.8674 40.5387C74.3286 40.9971 73.9994 41.2661 73.8796 41.3458C73.4207 41.6846 72.9518 42.0433 72.4729 42.422C71.2756 43.3786 70.0285 44.2555 68.7315 45.0526C67.4345 45.8298 66.0277 46.3081 64.5112 46.4875C63.3738 46.348 62.6056 45.8797 62.2065 45.0825C61.8074 44.2853 61.6378 43.3586 61.6976 42.3024C61.7575 41.2462 61.9072 40.2497 62.1466 39.3131C61.1689 40.5088 60.0714 41.585 58.8542 42.5416C57.6569 43.259 56.7091 43.3985 56.0107 42.9601C55.3123 42.5216 54.8733 41.7942 54.6937 40.7778C54.5142 39.7615 54.604 38.7451 54.9631 37.7287C55.2824 36.513 55.6815 35.7159 56.1604 35.3372C56.6592 34.9586 57.1082 34.849 57.5073 35.0084C57.9263 35.1678 58.1757 35.4668 58.2556 35.9052C58.3553 36.3237 58.1558 36.7422 57.6569 37.1607C57.6769 37.1607 57.6968 37.1607 57.7168 37.1607C57.7368 37.1408 57.7467 37.1209 57.7467 37.1009C57.7268 37.1209 57.7068 37.1508 57.6869 37.1906C57.3077 37.8283 56.9785 38.5657 56.6991 39.4027C56.4397 40.2198 56.4597 40.9771 56.759 41.6746C57.2179 41.8739 57.7467 41.7245 58.3454 41.2262C58.944 40.7081 59.5326 40.0604 60.1113 39.2832C60.69 38.486 61.1888 37.7686 61.6079 37.1308C61.8473 36.7721 62.0369 36.4931 62.1765 36.2938C62.3362 36.0746 62.4958 35.8255 62.6554 35.5465C62.9947 34.8888 63.4337 34.3707 63.9724 33.992C64.3316 33.7728 64.6708 33.7429 64.9901 33.9023C65.3293 34.0418 65.5588 34.2909 65.6785 34.6497C65.7982 34.9885 65.7284 35.3173 65.469 35.6362C65.3892 35.7358 65.3193 35.8255 65.2595 35.9052C65.2395 35.9052 65.2295 35.9052 65.2295 35.9052L65.2595 35.9351C65.2395 35.955 65.2096 35.9849 65.1697 36.0248C65.1497 36.0447 65.1397 36.0646 65.1397 36.0846C64.8604 36.4433 64.6209 36.812 64.4214 37.1906C63.5434 38.8447 63.0146 40.5985 62.835 42.4519C62.7951 44.6042 63.4736 45.6206 64.8704 45.501C66.2871 45.3814 67.9832 44.6441 69.9587 43.2889C71.9541 41.9337 73.7998 40.4789 75.4959 38.9244C77.192 37.37 78.2895 36.234 78.7884 35.5166Z" fill="#FDF5E6"/>
<path d="M80.7937 33.7529C79.9756 34.4902 79.357 35.0781 78.938 35.5166L78.7285 35.7557L78.0101 36.5031C77.7707 36.7223 77.7408 36.8817 77.9203 36.9814C78.08 37.0611 78.2695 37.0312 78.489 36.8917L78.7884 36.5927L79.2972 36.1443C80.2949 35.0283 81.103 34.3009 81.7216 33.9621C82.3601 33.6233 82.7393 33.4639 82.859 33.4838C82.9987 33.5038 83.0186 33.6233 82.9189 33.8425C81.2627 37.1308 80.7139 39.5921 81.2726 41.2262C81.8314 42.8604 83.1483 43.7273 85.2236 43.827C87.1392 43.4483 88.9051 42.6512 90.5214 41.4355C92.1377 40.2198 93.6642 38.8946 95.1009 37.4597C95.5398 37.0411 95.9788 36.6226 96.4178 36.2041C96.5775 36.0447 96.6273 35.8952 96.5675 35.7557C96.5076 35.5963 96.3979 35.4967 96.2382 35.4568C96.0786 35.4169 95.919 35.4767 95.7593 35.6362C95.0609 36.4931 94.3127 37.3102 93.5145 38.0874C91.9182 39.6817 90.1522 41.0369 88.2167 42.1529C86.9995 42.8903 85.7923 43.1693 84.595 42.99C83.4177 42.8106 82.6295 42.0334 82.2304 40.6583C82.0109 39.4227 82.1606 38.197 82.6794 36.9814C83.1982 35.7657 83.8866 34.6696 84.7447 33.6931C84.9841 33.3144 85.034 32.9657 84.8943 32.6468C84.7546 32.308 84.5052 32.0788 84.146 31.9593C83.8068 31.8397 83.4476 31.8596 83.0685 32.019C82.43 32.3977 81.6717 32.9756 80.7937 33.7529ZM56.4896 41.5252L56.4597 41.5551C56.4796 41.5551 56.4896 41.565 56.4896 41.585V41.5252Z" fill="#FDF5E6"/>
<path d="M101.237 52.1075C101.337 52.1075 101.416 52.1374 101.476 52.1972C101.556 52.2769 101.586 52.3666 101.566 52.4662C101.566 52.5658 101.526 52.6456 101.446 52.7053C101.366 52.7851 101.277 52.8249 101.177 52.8249C100.658 52.8249 100.139 52.8648 99.6205 52.9445C97.0065 59.7801 93.7639 66.3567 89.8928 72.6742C89.4139 73.2322 88.9949 73.4315 88.6357 73.2721C88.2765 73.1326 87.9872 72.8336 87.7677 72.3753C87.5283 71.9368 87.3786 71.5183 87.3187 71.1198C86.8598 68.6087 87.1392 66.0976 88.1568 63.5866C89.1545 61.0755 90.5014 58.8036 92.1975 56.7709C93.6143 55.1168 95.3104 53.8413 97.2858 52.9445C99.6005 47.4242 101.227 42.133 102.165 37.071C100.688 39.2234 99.1316 41.3458 97.4953 43.4384C97.3956 43.5779 97.2858 43.7074 97.1661 43.827C96.8468 44.3053 96.4478 44.664 95.9689 44.9031C94.6319 44.943 93.8737 44.3451 93.6941 43.1095C93.5145 41.854 93.6642 40.4689 94.1431 38.9543C94.602 37.4397 95.1308 36.3038 95.7294 35.5465C96.1884 34.8689 96.6872 34.55 97.226 34.5899C97.7647 34.6297 98.1139 34.8689 98.2736 35.3073C98.4531 35.7458 98.2436 36.244 97.645 36.802C97.206 37.1408 96.787 37.7287 96.3879 38.5657C95.9888 39.4027 95.7095 40.2696 95.5498 41.1665C95.3702 42.0433 95.4101 42.7209 95.6695 43.1992C96.2682 42.5416 96.9566 41.7245 97.7348 40.7479C98.513 39.7714 99.2114 38.8447 99.83 37.9678C100.109 37.5493 100.429 37.1109 100.788 36.6525C101.187 36.1344 101.556 35.6063 101.895 35.0682C102.254 34.5102 102.484 33.9621 102.584 33.424C102.624 33.1251 102.763 32.8959 103.003 32.7365C104.12 31.9991 104.709 32.298 104.769 33.6333C104.828 34.9685 104.599 36.7522 104.08 38.9842C103.581 41.1964 103.023 43.2789 102.404 45.232C101.805 47.1651 101.406 48.3608 101.207 48.8192C100.788 49.9551 100.359 51.0811 99.9198 52.1972C100.359 52.1374 100.798 52.1075 101.237 52.1075ZM88.5759 70.3724C91.5091 65.4699 94.2927 59.9595 96.9267 53.8413C94.3127 55.2762 92.2873 57.309 90.8506 59.9396C89.7332 61.8926 88.965 63.9353 88.5459 66.0678C88.526 66.1475 88.506 66.2471 88.4861 66.3667C88.3863 66.9646 88.3165 67.6421 88.2765 68.3994C88.2366 69.1767 88.3364 69.8343 88.5759 70.3724Z" fill="#FDF5E6"/>
<path d="M109.767 45.3217C109.747 45.3217 109.737 45.3117 109.737 45.2918L109.767 45.3217ZM119.136 35.6063C118.517 36.0646 117.878 36.6027 117.22 37.2205C116.522 37.8582 115.923 38.4362 115.424 38.9543C114.905 39.4526 114.596 39.7515 114.496 39.8511C114.117 40.2896 113.718 40.728 113.299 41.1665C112.66 41.844 112.042 42.5416 111.443 43.259C111.882 42.1828 112.202 41.3259 112.401 40.6882C112.96 39.2931 113.459 37.8881 113.898 36.4732C114.037 35.9749 113.948 35.5863 113.628 35.3073C113.309 35.0283 112.94 34.9187 112.521 34.9785C112.102 35.0383 111.802 35.3073 111.623 35.7856C111.403 36.5031 111.154 37.2006 110.875 37.8782V37.9081L110.186 39.7615C109.528 41.3159 108.959 42.8803 108.48 44.4547C108.36 44.8533 108.41 45.1921 108.63 45.4711C108.849 45.7701 109.139 45.9395 109.498 45.9793C109.857 46.0192 110.176 45.8996 110.456 45.6206C110.775 45.2619 111.353 44.5743 112.192 43.5579C113.728 41.7045 115.354 40.0106 117.07 38.476C117.649 38.0775 118.188 37.7088 118.687 37.37C118.467 38.8049 118.567 40.1301 118.986 41.3458C119.525 42.8803 120.832 43.6974 122.907 43.7971C124.823 43.4184 126.588 42.6213 128.205 41.4056C129.821 40.1899 131.348 38.8647 132.784 37.4298L134.101 36.1742C134.261 36.0148 134.311 35.8554 134.251 35.6959C134.191 35.5564 134.081 35.4668 133.922 35.4269C133.762 35.387 133.602 35.4468 133.443 35.6063C132.744 36.4632 131.996 37.2803 131.198 38.0575C129.602 39.6519 127.836 41.007 125.9 42.123C124.683 42.8604 123.476 43.1394 122.278 42.9601C121.101 42.7807 120.313 42.0035 119.914 40.6284C119.694 39.3928 119.844 38.1671 120.363 36.9515C120.542 36.533 120.742 36.1344 120.961 35.7557C121.42 35.397 121.819 35.0881 122.159 34.829C122.737 34.2312 122.887 33.5237 122.608 32.7066C122.608 32.6667 122.598 32.6269 122.578 32.587C122.438 32.2682 122.189 32.0489 121.829 31.9294C121.49 31.8098 121.141 31.9593 120.782 32.3778C120.243 33.0155 119.694 34.0917 119.136 35.6063Z" fill="#FDF5E6"/>
<path d="M154.095 35.6362C154.155 35.8753 154.015 36.0646 153.676 36.2041C153.357 36.3436 153.008 36.4532 152.629 36.533C152.329 36.6127 152.11 36.6824 151.97 36.7422C149.975 37.2604 147.949 37.5294 145.894 37.5493C145.794 37.5493 145.695 37.5493 145.595 37.5493C144.817 37.5294 143.899 37.4796 142.841 37.3999C141.784 37.3202 140.776 37.1308 139.818 36.8319C139.858 38.3465 139.589 39.8212 139.01 41.2561C138.451 42.691 137.663 43.7772 136.645 44.5145C135.448 45.3715 134.351 45.6106 133.353 45.232C132.355 44.8533 131.717 43.9466 131.437 42.5117C131.138 39.881 131.787 37.4796 133.383 35.3073C134.201 34.2511 135.209 33.424 136.406 32.8262C136.965 32.6069 137.414 32.6867 137.753 33.0653C137.932 32.886 138.162 32.866 138.441 33.0055C139.12 33.7828 139.549 34.7493 139.728 35.9052C140.726 36.3038 141.843 36.5629 143.081 36.6824C144.318 36.7821 145.256 36.8319 145.894 36.8319C148.588 36.8518 151.182 36.3935 153.676 35.4568C153.756 35.4169 153.836 35.4169 153.916 35.4568C153.995 35.4967 154.055 35.5564 154.095 35.6362ZM138.501 35.0981C138.441 34.7991 138.351 34.5102 138.232 34.2312C138.232 34.55 138.321 34.839 138.501 35.0981ZM134.4 44.0362C135.937 43.6775 137.074 42.7309 137.813 41.1964C138.571 39.6618 138.88 38.0476 138.741 36.3536C138.122 36.0148 137.693 35.5564 137.453 34.9785C136.336 35.5564 135.438 36.3735 134.76 37.4298C134.101 38.4661 133.672 39.5921 133.473 40.8077C133.473 40.8875 133.463 40.9672 133.443 41.0469C133.383 41.6248 133.383 42.2227 133.443 42.8405C133.523 43.4583 133.842 43.8569 134.4 44.0362Z" fill="#FDF5E6"/>
<path d="M170.378 35.4867C170.478 35.387 170.577 35.3572 170.677 35.397C170.777 35.4369 170.837 35.5066 170.857 35.6063C170.897 35.7059 170.867 35.7956 170.767 35.8753C168.951 37.2504 167.035 38.4461 165.02 39.4625C163.005 40.4789 160.959 41.3857 158.884 42.1828C158.425 42.3423 157.946 42.5216 157.448 42.7209C157.428 42.7209 157.418 42.7209 157.418 42.7209C157.817 43.3188 158.076 43.9565 158.196 44.6341C158.176 46.1487 157.777 47.6035 156.999 48.9986C156.24 50.3936 155.332 51.6591 154.275 52.795C154.255 52.815 154.225 52.8449 154.185 52.8847C153.846 53.2235 153.387 53.642 152.808 54.1402C152.21 54.6385 151.621 55.0271 151.042 55.3061C150.444 55.5851 149.975 55.5452 149.635 55.1865C148.957 53.7915 148.967 51.4698 149.665 48.2213C150.364 44.9729 151.431 41.3956 152.868 37.4896C154.285 33.5835 155.731 29.9464 157.208 26.5784C158.705 23.2104 159.882 20.7093 160.74 19.0752C160.92 18.7762 161.089 18.4773 161.249 18.1783C161.668 17.3812 162.127 16.6139 162.626 15.8765C163.124 15.1192 163.743 14.4616 164.481 13.9036C164.86 13.6246 165.23 13.5847 165.589 13.784C165.948 13.9833 166.108 14.3022 166.068 14.7406C165.629 16.9328 165.06 19.0752 164.362 21.1677C162.925 25.1336 161.019 28.8902 158.645 32.4375C158.625 32.4774 158.575 32.5472 158.495 32.6468C158.276 32.9657 157.916 33.4838 157.418 34.2013C156.939 34.8988 156.43 35.5863 155.891 36.2639C155.233 37.9977 154.594 39.7415 153.975 41.4953C154.035 41.4754 154.095 41.4554 154.155 41.4355C154.913 41.2163 155.592 41.2761 156.19 41.6149C158.445 41.5152 161.019 40.7978 163.913 39.4625C166.806 38.1074 168.961 36.7821 170.378 35.4867ZM164.152 17.9093C163.194 19.5036 162.346 21.1577 161.608 22.8716C161.289 23.5492 160.959 24.2268 160.62 24.9044C159.243 27.9735 157.946 31.0624 156.729 34.1714C159.822 30.1258 162.077 25.7215 163.494 20.9584C163.534 20.799 163.573 20.6296 163.613 20.4503C163.873 19.6132 164.052 18.7663 164.152 17.9093ZM154.844 43.6476L154.814 43.6177C154.654 43.6576 154.484 43.6974 154.305 43.7373C153.866 43.6974 153.566 43.5081 153.407 43.1693C153.207 43.7473 153.018 44.3352 152.838 44.933C152.599 45.7302 152.349 46.5274 152.09 47.3245C151.711 48.4405 151.381 49.5566 151.102 50.6726C150.823 51.8085 150.673 52.9445 150.653 54.0805C151.95 53.2036 153.048 52.1174 153.946 50.8221C154.844 49.5267 155.502 48.1516 155.921 46.6968C156.061 46.1985 156.121 45.7103 156.101 45.232C156.041 44.9131 155.881 44.5843 155.622 44.2455C155.382 43.9067 155.123 43.7074 154.844 43.6476Z" fill="#FDF5E6"/>
</svg>
