<svg width="30" height="10" viewBox="0 0 30 10" fill="none" xmlns="http://www.w3.org/2000/svg">
<circle cx="5" cy="5" r="5" fill="#301D1B"/>
<circle cx="25" cy="5" r="5" fill="#301D1B"/>
<rect x="5" width="20" height="10" fill="#301D1B"/>
</svg>
